%YAML 1.1
%TAG !u! tag:unity3d.com,2011:
--- !u!21 &2100000
Material:
  serializedVersion: 6
  m_ObjectHideFlags: 0
  m_PrefabParentObject: {fileID: 0}
  m_PrefabInternal: {fileID: 0}
  m_Name: ground - Dry Earth Dry Grass - bump
  m_Shader: {fileID: 4, guid: 0000000000000000f000000000000000, type: 0}
  m_ShaderKeywords: 
  m_LightmapFlags: 4
  m_EnableInstancingVariants: 0
  m_DoubleSidedGI: 0
  m_CustomRenderQueue: -1
  stringTagMap: {}
  disabledShaderPasses: []
  m_SavedProperties:
    serializedVersion: 3
    m_TexEnvs:
    - _BumpMap:
        m_Texture: {fileID: 2800000, guid: 649388f8b3cbd284cb204e7850bdac14, type: 3}
        m_Scale: {x: 2, y: 2}
        m_Offset: {x: 0, y: 0}
    - _MainTex:
        m_Texture: {fileID: 2800000, guid: 0375bda8f8bc57e4085977286cb27ca9, type: 3}
        m_Scale: {x: 2, y: 2}
        m_Offset: {x: 0, y: 0}
    m_Floats:
    - _Shininess: 0.46902052
    m_Colors:
    - _Color: {r: 0.91791046, g: 0.91791046, b: 0.91791046, a: 1}
    - _SpecColor: {r: 0.92156863, g: 0.80784315, b: 0.6627451, a: 1}
--- !u!1002 &2100001
EditorExtensionImpl:
  serializedVersion: 6
